stm32h7xx_hal_msp.c:67:6:HAL_MspInit	16	static
stm32h7xx_hal_msp.c:88:6:HAL_ADC_MspInit	64	static
stm32h7xx_hal_msp.c:174:6:HAL_ADC_MspDeInit	16	static
stm32h7xx_hal_msp.c:236:6:HAL_SD_MspInit	240	static
stm32h7xx_hal_msp.c:295:6:HAL_SD_MspDeInit	16	static
stm32h7xx_hal_msp.c:331:6:HAL_TIM_Base_MspInit	24	static
stm32h7xx_hal_msp.c:370:6:HAL_TIM_Base_MspDeInit	16	static
stm32h7xx_hal_msp.c:409:6:HAL_UART_MspInit	232	static
stm32h7xx_hal_msp.c:492:6:HAL_UART_MspDeInit	16	static
